<?xml version="1.0" encoding="utf-8"?>
<!-- Generator: Adobe Illustrator 19.2.0, SVG Export Plug-In . SVG Version: 6.00 Build 0)  -->
<svg version="1.0" id="Layer_1" xmlns="http://www.w3.org/2000/svg" xmlns:xlink="http://www.w3.org/1999/xlink" x="0px" y="0px"
	 viewBox="0 0 208.7 79" style="enable-background:new 0 0 208.7 79;" xml:space="preserve">
<style type="text/css">
	.st0{fill:#A0A9A6;stroke:#A0A9A6;stroke-miterlimit:10;}
	.st1{font-family:'P22ArtsandCraftsHunter';}
	.st2{font-size:60px;}
</style>
<text transform="matrix(1 0 0 1 0.5205 51.4995)" class="st0 st1 st2">ALBION</text>
</svg>
