{
    "key": "group_5708e499725bc",
    "title": "Opening Hours",
    "fields": [
        {
            "key": "field_5708e4a19eb66",
            "label": "Opening Hours",
            "name": "opening_hours",
            "type": "repeater",
            "instructions": "",
            "required": 0,
            "conditional_logic": 0,
            "wrapper": {
                "width": "",
                "class": "",
                "id": ""
            },
            "collapsed": "field_5708e4be9eb67",
            "min": "",
            "max": "",
            "layout": "table",
            "button_label": "Add Day",
            "sub_fields": [
                {
                    "key": "field_5708e4be9eb67",
                    "label": "Day Name",
                    "name": "day_name",
                    "type": "text",
                    "instructions": "",
                    "required": 0,
                    "conditional_logic": 0,
                    "wrapper": {
                        "width": 30,
                        "class": "",
                        "id": ""
                    },
                    "default_value": "",
                    "placeholder": "",
                    "prepend": "",
                    "append": "",
                    "maxlength": "",
                    "readonly": 0,
                    "disabled": 0
                },
                {
                    "key": "field_5708e4d39eb68",
                    "label": "Opening Time",
                    "name": "opening_time",
                    "type": "date_time_picker",
                    "instructions": "",
                    "required": 0,
                    "conditional_logic": 0,
                    "wrapper": {
                        "width": 30,
                        "class": "",
                        "id": ""
                    },
                    "show_date": "false",
                    "date_format": "m\/d\/y",
                    "time_format": "h:mm tt",
                    "show_week_number": "false",
                    "picker": "slider",
                    "save_as_timestamp": "true",
                    "get_as_timestamp": "false"
                },
                {
                    "key": "field_5708e5029eb69",
                    "label": "Closing Time",
                    "name": "closing_time",
                    "type": "date_time_picker",
                    "instructions": "",
                    "required": 0,
                    "conditional_logic": 0,
                    "wrapper": {
                        "width": "",
                        "class": "",
                        "id": ""
                    },
                    "show_date": "false",
                    "date_format": "m\/d\/y",
                    "time_format": "h:mm tt",
                    "show_week_number": "false",
                    "picker": "slider",
                    "save_as_timestamp": "true",
                    "get_as_timestamp": "false"
                }
            ]
        }
    ],
    "location": [
        [
            {
                "param": "options_page",
                "operator": "==",
                "value": "acf-options-opening-hours"
            }
        ]
    ],
    "menu_order": 0,
    "position": "normal",
    "style": "default",
    "label_placement": "top",
    "instruction_placement": "label",
    "hide_on_screen": "",
    "active": 1,
    "description": "",
    "modified": 1460202873
}