{
    "key": "group_56e87daa92833",
    "title": "Homepage Blocks",
    "fields": [
        {
            "key": "field_56e87e18a32e4",
            "label": "Homepage items",
            "name": "homepage_items",
            "type": "flexible_content",
            "instructions": "Add blocks to homepage",
            "required": 0,
            "conditional_logic": 0,
            "wrapper": {
                "width": "",
                "class": "",
                "id": ""
            },
            "button_label": "Add block",
            "min": "",
            "max": "",
            "layouts": [
                {
                    "key": "56e87e265bdd0",
                    "name": "picture_block",
                    "label": "Picture",
                    "display": "block",
                    "sub_fields": [
                        {
                            "key": "field_56f18be1ffcae",
                            "label": "image",
                            "name": "layout_image",
                            "type": "image",
                            "instructions": "Please select an image at least ( to be added )",
                            "required": 0,
                            "conditional_logic": 0,
                            "wrapper": {
                                "width": "",
                                "class": "",
                                "id": ""
                            },
                            "return_format": "url",
                            "preview_size": "thumbnail",
                            "library": "all",
                            "min_width": "",
                            "min_height": "",
                            "min_size": "",
                            "max_width": "",
                            "max_height": "",
                            "max_size": "",
                            "mime_types": ""
                        },
                        {
                            "key": "field_56f28acf4ed12",
                            "label": "Link",
                            "name": "layout_link",
                            "type": "link_picker",
                            "instructions": "",
                            "required": 0,
                            "conditional_logic": 0,
                            "wrapper": {
                                "width": "",
                                "class": "",
                                "id": ""
                            }
                        }
                    ],
                    "min": "",
                    "max": ""
                },
                {
                    "key": "56f28ab44ed10",
                    "name": "text_block",
                    "label": "Text",
                    "display": "block",
                    "sub_fields": [
                        {
                            "key": "field_56f2982be2338",
                            "label": "Main Text",
                            "name": "main_text",
                            "type": "text",
                            "instructions": "",
                            "required": 0,
                            "conditional_logic": 0,
                            "wrapper": {
                                "width": "",
                                "class": "",
                                "id": ""
                            },
                            "default_value": "",
                            "placeholder": "",
                            "prepend": "",
                            "append": "",
                            "maxlength": "",
                            "readonly": 0,
                            "disabled": 0
                        },
                        {
                            "key": "field_56f29836e2339",
                            "label": "Sub Text",
                            "name": "sub_text",
                            "type": "text",
                            "instructions": "",
                            "required": 0,
                            "conditional_logic": 0,
                            "wrapper": {
                                "width": "",
                                "class": "",
                                "id": ""
                            },
                            "default_value": "",
                            "placeholder": "",
                            "prepend": "",
                            "append": "",
                            "maxlength": "",
                            "readonly": 0,
                            "disabled": 0
                        },
                        {
                            "key": "field_56f2983fe233a",
                            "label": "Link",
                            "name": "layout_link",
                            "type": "link_picker",
                            "instructions": "",
                            "required": 0,
                            "conditional_logic": 0,
                            "wrapper": {
                                "width": "",
                                "class": "",
                                "id": ""
                            }
                        }
                    ],
                    "min": "",
                    "max": ""
                }
            ]
        }
    ],
    "location": [
        [
            {
                "param": "page_type",
                "operator": "==",
                "value": "front_page"
            }
        ],
        [
            {
                "param": "page_type",
                "operator": "==",
                "value": "front_page"
            }
        ]
    ],
    "menu_order": 0,
    "position": "normal",
    "style": "default",
    "label_placement": "top",
    "instruction_placement": "label",
    "hide_on_screen": [
        "the_content",
        "custom_fields"
    ],
    "active": 1,
    "description": "",
    "modified": 1460292160
}